{
    "constructors": [],
    "externalReferences": [],
    "id": "01p1500000736a4AAA",
    "innerClasses": [
        {
            "constructors": [],
            "externalReferences": [],
            "id": null,
            "innerClasses": [],
            "interfaces": [],
            "key": null,
            "methods": [],
            "name": "JPH_Exception",
            "namespace": null,
            "parentClass": "Exception",
            "properties": [],
            "tableDeclaration": {
                "annotations": [],
                "location": {
                    "column": 18,
                    "line": 28
                },
                "modifiers": [
                    "public"
                ],
                "name": "JPH_Exception",
                "references": [],
                "type": "JPH_Exception"
            },
            "variables": []
        }
    ],
    "interfaces": [],
    "key": "01p1500000736a4AAA",
    "methods": [
        {
            "annotations": [],
            "location": {
                "column": 32,
                "line": 10
            },
            "modifiers": [
                "static",
                "public"
            ],
            "name": "request",
            "parameters": [
                {
                    "name": "method",
                    "type": "String"
                },
                {
                    "name": "resource",
                    "type": "String"
                }
            ],
            "references": [],
            "returnType": "HttpResponse",
            "type": null
        },
        {
            "annotations": [],
            "location": {
                "column": 25,
                "line": 23
            },
            "modifiers": [
                "private",
                "static"
            ],
            "name": "handleResponse",
            "parameters": [
                {
                    "name": "response",
                    "type": "HttpResponse"
                }
            ],
            "references": [],
            "returnType": "void",
            "type": null
        }
    ],
    "name": "JPHClient",
    "namespace": null,
    "parentClass": "",
    "properties": [
        {
            "annotations": [],
            "location": {
                "column": 33,
                "line": 7
            },
            "modifiers": [
                "private",
                "static",
                "final"
            ],
            "name": "ENDPOINT",
            "references": [],
            "type": "String"
        }
    ],
    "tableDeclaration": {
        "annotations": [],
        "location": {
            "column": 14,
            "line": 5
        },
        "modifiers": [
            "public"
        ],
        "name": "JPHClient",
        "references": [],
        "type": "JPHClient"
    },
    "variables": [
        {
            "annotations": [],
            "location": {
                "column": 47,
                "line": 10
            },
            "modifiers": [],
            "name": "method",
            "references": [],
            "type": "String"
        },
        {
            "annotations": [],
            "location": {
                "column": 62,
                "line": 10
            },
            "modifiers": [],
            "name": "resource",
            "references": [],
            "type": "String"
        },
        {
            "annotations": [],
            "location": {
                "column": 21,
                "line": 11
            },
            "modifiers": [],
            "name": "request",
            "references": [],
            "type": "HttpRequest"
        },
        {
            "annotations": [],
            "location": {
                "column": 14,
                "line": 15
            },
            "modifiers": [],
            "name": "http",
            "references": [],
            "type": "Http"
        },
        {
            "annotations": [],
            "location": {
                "column": 22,
                "line": 16
            },
            "modifiers": [],
            "name": "response",
            "references": [],
            "type": "HttpResponse"
        },
        {
            "annotations": [],
            "location": {
                "column": 53,
                "line": 23
            },
            "modifiers": [],
            "name": "response",
            "references": [],
            "type": "HttpResponse"
        }
    ]
}